[{"line":1,"elements":[{"line":3,"name":"get all active users","description":"","id":"get-all-active-users","type":"scenario","keyword":"Scenario","steps":[{"name":"def query = {status:'active', gender: 'female', id:23}","result":{"duration":2192901,"status":"passed"},"match":{"location":"karate","arguments":[]},"keyword":"*","line":4},{"name":"url baseUrl+'\/public\/v1\/users'","result":{"duration":3984899,"status":"passed"},"match":{"location":"karate","arguments":[]},"keyword":"Given","line":5},{"name":"params query","result":{"duration":589500,"status":"passed"},"match":{"location":"karate","arguments":[]},"keyword":"And","line":6},{"name":"method GET","result":{"duration":1668674499,"status":"passed"},"match":{"location":"karate","arguments":[]},"keyword":"When","line":7,"doc_string":{"content_type":"","value":"02:18:31.076 request:\n1 > GET https:\/\/gorest.co.in\/public\/v1\/users?status=active&gender=female&id=23\n1 > Accept-Encoding: gzip,deflate\n1 > Connection: Keep-Alive\n1 > Host: gorest.co.in\n1 > User-Agent: Apache-HttpClient\/4.5.12 (Java\/13.0.2)\n\n02:18:31.718 response time in milliseconds: 639.02\n1 < 200\n1 < Cache-Control: max-age=0, private, must-revalidate\n1 < Connection: keep-alive\n1 < Content-Type: application\/json; charset=utf-8\n1 < Date: Tue, 28 Dec 2021 07:17:35 GMT\n1 < ETag: W\/\"dd4bea32f18c2903d2185ef04c61f42d\"\n1 < Referrer-Policy: strict-origin-when-cross-origin\n1 < Server: nginx\n1 < Strict-Transport-Security: max-age=63072000; includeSubDomains\n1 < Transfer-Encoding: chunked\n1 < Vary: [Accept-Encoding, Origin]\n1 < X-Content-Type-Options: nosniff\n1 < X-Download-Options: noopen\n1 < X-Frame-Options: SAMEORIGIN\n1 < X-Permitted-Cross-Domain-Policies: none\n1 < X-Request-Id: 0b9b13df-cb7e-4c48-916b-90c59bd020ae\n1 < X-Runtime: 0.006820\n1 < X-XSS-Protection: 0\n{\"meta\":{\"pagination\":{\"total\":1,\"pages\":1,\"page\":1,\"limit\":20,\"links\":{\"previous\":null,\"current\":\"https:\/\/gorest.co.in\/public\/v1\/users?page=1\",\"next\":null}}},\"data\":[{\"id\":23,\"name\":\"Dev Sinha\",\"email\":\"sinha_dev@ebert.io\",\"gender\":\"female\",\"status\":\"active\"}]}","line":7}},{"name":"status 200","result":{"duration":20599,"status":"passed"},"match":{"location":"karate","arguments":[]},"keyword":"Then","line":8},{"name":"print response","result":{"duration":406701,"status":"passed"},"match":{"location":"karate","arguments":[]},"keyword":"*","line":9,"doc_string":{"content_type":"","value":"02:18:31.720 [print] {\n  \"data\": [\n    {\n      \"gender\": \"female\",\n      \"name\": \"Dev Sinha\",\n      \"id\": 23,\n      \"email\": \"sinha_dev@ebert.io\",\n      \"status\": \"active\"\n    }\n  ],\n  \"meta\": {\n    \"pagination\": {\n      \"total\": 1,\n      \"pages\": 1,\n      \"limit\": 20,\n      \"links\": {\n        \"next\": null,\n        \"current\": \"https:\/\/gorest.co.in\/public\/v1\/users?page=1\",\n        \"previous\": null\n      },\n      \"page\": 1\n    }\n  }\n}","line":9}}]},{"line":11,"name":"get all active users","description":"","id":"get-all-active-users","type":"scenario","keyword":"Scenario","steps":[{"name":"def query = {status:'active'}","result":{"duration":262200,"status":"passed"},"match":{"location":"karate","arguments":[]},"keyword":"*","line":12},{"name":"url baseUrl+'\/public\/v1\/users'","result":{"duration":514000,"status":"passed"},"match":{"location":"karate","arguments":[]},"keyword":"Given","line":13},{"name":"params query","result":{"duration":150900,"status":"passed"},"match":{"location":"karate","arguments":[]},"keyword":"And","line":14},{"name":"method GET","result":{"duration":332154499,"status":"passed"},"match":{"location":"karate","arguments":[]},"keyword":"When","line":15,"doc_string":{"content_type":"","value":"02:18:31.732 request:\n1 > GET https:\/\/gorest.co.in\/public\/v1\/users?status=active\n1 > Accept-Encoding: gzip,deflate\n1 > Connection: Keep-Alive\n1 > Host: gorest.co.in\n1 > User-Agent: Apache-HttpClient\/4.5.12 (Java\/13.0.2)\n\n02:18:32.062 response time in milliseconds: 328.10\n1 < 200\n1 < Cache-Control: max-age=0, private, must-revalidate\n1 < Connection: keep-alive\n1 < Content-Type: application\/json; charset=utf-8\n1 < Date: Tue, 28 Dec 2021 07:17:35 GMT\n1 < ETag: W\/\"d0cfd723080e4848964de61d709992e4\"\n1 < Referrer-Policy: strict-origin-when-cross-origin\n1 < Server: nginx\n1 < Strict-Transport-Security: max-age=63072000; includeSubDomains\n1 < Transfer-Encoding: chunked\n1 < Vary: [Accept-Encoding, Origin]\n1 < X-Content-Type-Options: nosniff\n1 < X-Download-Options: noopen\n1 < X-Frame-Options: SAMEORIGIN\n1 < X-Permitted-Cross-Domain-Policies: none\n1 < X-Request-Id: b23a4690-a84c-4acc-8cb7-2a224c61af18\n1 < X-Runtime: 0.010322\n1 < X-XSS-Protection: 0\n{\"meta\":{\"pagination\":{\"total\":779,\"pages\":39,\"page\":1,\"limit\":20,\"links\":{\"previous\":null,\"current\":\"https:\/\/gorest.co.in\/public\/v1\/users?page=1\",\"next\":\"https:\/\/gorest.co.in\/public\/v1\/users?page=2\"}}},\"data\":[{\"id\":2311,\"name\":\"Juhi Sodagar \",\"email\":\"juhixys@15ce.com\",\"gender\":\"female\",\"status\":\"active\"},{\"id\":2314,\"name\":\"Test Name Testing\",\"email\":\"test-9910@mail.ca\",\"gender\":\"male\",\"status\":\"active\"},{\"id\":12,\"name\":\"Karunanidhi Singh\",\"email\":\"karunanidhi_singh@harber-ferry.com\",\"gender\":\"male\",\"status\":\"active\"},{\"id\":14,\"name\":\"Bhaumik Kaur\",\"email\":\"bhaumik_kaur@robel.io\",\"gender\":\"female\",\"status\":\"active\"},{\"id\":15,\"name\":\"Priya Guha VM\",\"email\":\"vm_priya_guha@boyle.io\",\"gender\":\"male\",\"status\":\"active\"},{\"id\":19,\"name\":\"Gautami Bandopadhyay\",\"email\":\"bandopadhyay_gautami@kshlerin.info\",\"gender\":\"female\",\"status\":\"active\"},{\"id\":20,\"name\":\"Aagneya Kaur\",\"email\":\"kaur_aagneya@yost-macejkovic.net\",\"gender\":\"male\",\"status\":\"active\"},{\"id\":21,\"name\":\"Pres. Deeptimayee Prajapat\",\"email\":\"deeptimayee_pres_prajapat@schowalter-lynch.org\",\"gender\":\"female\",\"status\":\"active\"},{\"id\":23,\"name\":\"Dev Sinha\",\"email\":\"sinha_dev@ebert.io\",\"gender\":\"female\",\"status\":\"active\"},{\"id\":30,\"name\":\"Mahendra Kakkar DVM\",\"email\":\"dvm_mahendra_kakkar@ebert.io\",\"gender\":\"male\",\"status\":\"active\"},{\"id\":31,\"name\":\"Prayag Khatri Sr.\",\"email\":\"khatri_prayag_sr@parker.info\",\"gender\":\"male\",\"status\":\"active\"},{\"id\":32,\"name\":\"Manikya Naik\",\"email\":\"naik_manikya@prohaska.net\",\"gender\":\"female\",\"status\":\"active\"},{\"id\":36,\"name\":\"Gopee Nayar\",\"email\":\"nayar_gopee@armstrong.com\",\"gender\":\"male\",\"status\":\"active\"},{\"id\":38,\"name\":\"Kanishka Devar\",\"email\":\"devar_kanishka@williamson.com\",\"gender\":\"male\",\"status\":\"active\"},{\"id\":39,\"name\":\"Girja Embranthiri\",\"email\":\"embranthiri_girja@hilpert-bogisich.com\",\"gender\":\"male\",\"status\":\"active\"},{\"id\":43,\"name\":\"Dr. Ojaswini Nair\",\"email\":\"ojaswini_dr_nair@johnson-terry.org\",\"gender\":\"female\",\"status\":\"active\"},{\"id\":44,\"name\":\"Nalini Guneta\",\"email\":\"guneta_nalini@cronin.biz\",\"gender\":\"male\",\"status\":\"active\"},{\"id\":45,\"name\":\"Mayoor Acharya\",\"email\":\"acharya_mayoor@crooks-reichert.com\",\"gender\":\"female\",\"status\":\"active\"},{\"id\":46,\"name\":\"Girija Mukhopadhyay\",\"email\":\"girija_mukhopadhyay@leuschke.com\",\"gender\":\"male\",\"status\":\"active\"},{\"id\":47,\"name\":\"Kumar Pilla\",\"email\":\"kumar_pilla@hansen.co\",\"gender\":\"female\",\"status\":\"active\"}]}","line":15}},{"name":"status 200","result":{"duration":21200,"status":"passed"},"match":{"location":"karate","arguments":[]},"keyword":"Then","line":16},{"name":"def jsonResponse = response","result":{"duration":64301,"status":"passed"},"match":{"location":"karate","arguments":[]},"keyword":"*","line":17},{"name":"print jsonResponse","result":{"duration":1817800,"status":"passed"},"match":{"location":"karate","arguments":[]},"keyword":"*","line":18,"doc_string":{"content_type":"","value":"02:18:32.065 [print] {\n  \"data\": [\n    {\n      \"gender\": \"female\",\n      \"name\": \"Juhi Sodagar \",\n      \"id\": 2311,\n      \"email\": \"juhixys@15ce.com\",\n      \"status\": \"active\"\n    },\n    {\n      \"gender\": \"male\",\n      \"name\": \"Test Name Testing\",\n      \"id\": 2314,\n      \"email\": \"test-9910@mail.ca\",\n      \"status\": \"active\"\n    },\n    {\n      \"gender\": \"male\",\n      \"name\": \"Karunanidhi Singh\",\n      \"id\": 12,\n      \"email\": \"karunanidhi_singh@harber-ferry.com\",\n      \"status\": \"active\"\n    },\n    {\n      \"gender\": \"female\",\n      \"name\": \"Bhaumik Kaur\",\n      \"id\": 14,\n      \"email\": \"bhaumik_kaur@robel.io\",\n      \"status\": \"active\"\n    },\n    {\n      \"gender\": \"male\",\n      \"name\": \"Priya Guha VM\",\n      \"id\": 15,\n      \"email\": \"vm_priya_guha@boyle.io\",\n      \"status\": \"active\"\n    },\n    {\n      \"gender\": \"female\",\n      \"name\": \"Gautami Bandopadhyay\",\n      \"id\": 19,\n      \"email\": \"bandopadhyay_gautami@kshlerin.info\",\n      \"status\": \"active\"\n    },\n    {\n      \"gender\": \"male\",\n      \"name\": \"Aagneya Kaur\",\n      \"id\": 20,\n      \"email\": \"kaur_aagneya@yost-macejkovic.net\",\n      \"status\": \"active\"\n    },\n    {\n      \"gender\": \"female\",\n      \"name\": \"Pres. Deeptimayee Prajapat\",\n      \"id\": 21,\n      \"email\": \"deeptimayee_pres_prajapat@schowalter-lynch.org\",\n      \"status\": \"active\"\n    },\n    {\n      \"gender\": \"female\",\n      \"name\": \"Dev Sinha\",\n      \"id\": 23,\n      \"email\": \"sinha_dev@ebert.io\",\n      \"status\": \"active\"\n    },\n    {\n      \"gender\": \"male\",\n      \"name\": \"Mahendra Kakkar DVM\",\n      \"id\": 30,\n      \"email\": \"dvm_mahendra_kakkar@ebert.io\",\n      \"status\": \"active\"\n    },\n    {\n      \"gender\": \"male\",\n      \"name\": \"Prayag Khatri Sr.\",\n      \"id\": 31,\n      \"email\": \"khatri_prayag_sr@parker.info\",\n      \"status\": \"active\"\n    },\n    {\n      \"gender\": \"female\",\n      \"name\": \"Manikya Naik\",\n      \"id\": 32,\n      \"email\": \"naik_manikya@prohaska.net\",\n      \"status\": \"active\"\n    },\n    {\n      \"gender\": \"male\",\n      \"name\": \"Gopee Nayar\",\n      \"id\": 36,\n      \"email\": \"nayar_gopee@armstrong.com\",\n      \"status\": \"active\"\n    },\n    {\n      \"gender\": \"male\",\n      \"name\": \"Kanishka Devar\",\n      \"id\": 38,\n      \"email\": \"devar_kanishka@williamson.com\",\n      \"status\": \"active\"\n    },\n    {\n      \"gender\": \"male\",\n      \"name\": \"Girja Embranthiri\",\n      \"id\": 39,\n      \"email\": \"embranthiri_girja@hilpert-bogisich.com\",\n      \"status\": \"active\"\n    },\n    {\n      \"gender\": \"female\",\n      \"name\": \"Dr. Ojaswini Nair\",\n      \"id\": 43,\n      \"email\": \"ojaswini_dr_nair@johnson-terry.org\",\n      \"status\": \"active\"\n    },\n    {\n      \"gender\": \"male\",\n      \"name\": \"Nalini Guneta\",\n      \"id\": 44,\n      \"email\": \"guneta_nalini@cronin.biz\",\n      \"status\": \"active\"\n    },\n    {\n      \"gender\": \"female\",\n      \"name\": \"Mayoor Acharya\",\n      \"id\": 45,\n      \"email\": \"acharya_mayoor@crooks-reichert.com\",\n      \"status\": \"active\"\n    },\n    {\n      \"gender\": \"male\",\n      \"name\": \"Girija Mukhopadhyay\",\n      \"id\": 46,\n      \"email\": \"girija_mukhopadhyay@leuschke.com\",\n      \"status\": \"active\"\n    },\n    {\n      \"gender\": \"female\",\n      \"name\": \"Kumar Pilla\",\n      \"id\": 47,\n      \"email\": \"kumar_pilla@hansen.co\",\n      \"status\": \"active\"\n    }\n  ],\n  \"meta\": {\n    \"pagination\": {\n      \"total\": 779,\n      \"pages\": 39,\n      \"limit\": 20,\n      \"links\": {\n        \"next\": \"https:\/\/gorest.co.in\/public\/v1\/users?page=2\",\n        \"current\": \"https:\/\/gorest.co.in\/public\/v1\/users?page=1\",\n        \"previous\": null\n      },\n      \"page\": 1\n    }\n  }\n}","line":18}},{"name":"def userCount = response.data.length","result":{"duration":18111800,"status":"passed"},"match":{"location":"karate","arguments":[]},"keyword":"*","line":19},{"name":"print userCount","result":{"duration":282200,"status":"passed"},"match":{"location":"karate","arguments":[]},"keyword":"*","line":20,"doc_string":{"content_type":"","value":"02:18:32.085 [print] 20","line":20}},{"name":"match userCount == 20","result":{"duration":3889400,"status":"passed"},"match":{"location":"karate","arguments":[]},"keyword":"*","line":21}]}],"name":"src\/test\/java\/features\/getapiwithquery.feature","description":"GET API with Query Parameters","id":"get-api-with-query-parameters","keyword":"Feature","uri":"src\/test\/java\/features\/getapiwithquery.feature"}]